{"code":1,"status":"success","data":{"offset":0,"size":10,"total":19,"self":"user/086d1f45-19b7-43e9-84db-2f3d2915523c/point_record?&page=1","next":"user/086d1f45-19b7-43e9-84db-2f3d2915523c/point_record?&page=2","items":[{"source":"system_give","number":0,"dateCreated":"2016-10-25 10:04:29"},{"source":"system_give","number":10,"dateCreated":"2016-10-24 17:08:10"},{"source":"system_give","number":10,"dateCreated":"2016-10-24 15:09:12"},{"source":"system_give","number":10,"dateCreated":"2016-10-24 13:30:22"},{"source":"system_give","number":10,"dateCreated":"2016-10-24 13:23:25"},{"source":"system_give","number":10,"dateCreated":"2016-10-24 13:06:16"},{"source":"system_give","number":1,"dateCreated":"2016-10-14 13:27:12"},{"source":"get_point","number":20,"dateCreated":"2016-10-13 13:27:12"},{"source":"system_give","number":99,"dateCreated":"2016-10-12 13:27:12"},{"source":"system_give","number":99,"dateCreated":"2016-10-11 13:27:12"}]}}