{"code":1,"status":"success","data":{"offset":0,"size":10,"total":14,"self":"user/2d3f040d-62d7-11e6-92b6-bc5ff4cacf90/exp_records?&page=1","next":"user/2d3f040d-62d7-11e6-92b6-bc5ff4cacf90/exp_records?&page=2","items":[{"number":200,"description":"购买会员卡","dateCreated":"2016-10-22 15:56:02"},{"number":100,"description":"购买会员卡","dateCreated":"2016-10-22 15:55:54"},{"number":100,"description":"购买会员卡","dateCreated":"2016-10-22 15:55:51"},{"number":100,"description":"购买会员卡","dateCreated":"2016-10-22 15:55:47"},{"number":100,"description":"购买会员卡","dateCreated":"2016-10-22 15:55:44"},{"number":100,"description":"购买会员卡","dateCreated":"2016-10-22 15:55:42"},{"number":100,"description":"购买会员卡","dateCreated":"2016-10-22 15:55:38"},{"number":199,"description":"购买会员卡","dateCreated":"2016-10-22 15:55:28"},{"number":-99,"description":"折扣体验","dateCreated":"2016-10-22 15:54:44"},{"number":-55,"description":"抵用金消费","dateCreated":"2016-10-22 15:29:32"}]}}