{"code":1,"status":"success","data":{"offset":0,"size":10,"total":18,"self":"hotels?uid=086d1f45-19b7-43e9-84db-2f3d2915523c&page=1","next":"hotels?uid=086d1f45-19b7-43e9-84db-2f3d2915523c&page=2","items":[{"id":"116752c5-f78f-4d26-990f-88d1828b6511","name":"春天宾馆02","photo":{"name":"a5a90bc606f84811a82d3f7572a9fe61.jpg","path":"http://123.56.20.50/img/hotel"},"province":"北京市","city":"北京市","district":"朝阳区","tags":["新店开业"],"price":299},{"id":"0f74a2c7-5c60-4d7e-9c1a-3d27839bb1b9","name":"春天宾馆01","photo":{"name":"","path":""},"province":"北京市","city":"北京市","district":"朝阳区","tags":["设施全","最便宜","新店开业"],"price":209},{"id":"eb3d75cc-8ee0-401c-9f72-e6a9f1e32eb8","name":"春天宾馆15","photo":{"name":"79d6279c60a1439caa69e8033da244ff.jpg","path":"http://123.56.20.50/img/hotel"},"province":"北京市","city":"北京市","district":"朝阳区","tags":["新店开业"],"price":199},{"id":"a5eb1a56-ba83-4293-aab0-97564c8adce7","name":"春天宾馆11","photo":{"name":"79d6279c60a1439caa69e8033da244ff.jpg","path":"http://123.56.20.50/img/hotel"},"province":"北京市","city":"北京市","district":"朝阳区","tags":["新店开业"],"price":1099},{"id":"37f51a3f-baed-4551-986c-3ab5c9cc40ad","name":"春天宾馆06","photo":{"name":"79d6279c60a1439caa69e8033da244ff.jpg","path":"http://123.56.20.50/img/hotel"},"province":"北京市","city":"北京市","district":"朝阳区","tags":["新店开业"]},{"id":"e16131fc-fd32-424e-8f62-ca8f32977b97","name":"春天宾馆14","photo":{"name":"79d6279c60a1439caa69e8033da244ff.jpg","path":"http://123.56.20.50/img/hotel"},"province":"北京市","city":"北京市","district":"朝阳区","tags":["新店开业"],"price":199},{"id":"4ca82f31-d8c1-46c0-be31-746a2efe21f6","name":"春天酒店007","photo":{"name":"79d6279c60a1439caa69e8033da244ff.jpg","path":"http://123.56.20.50/img/hotel"},"province":"上海市","city":"上海市","district":"宝山区","tags":["新店开业"]},{"id":"3c67fbf2-e5e5-42a3-be32-98abd7f05a85","name":"春天宾馆测试01","photo":{"name":"79d6279c60a1439caa69e8033da244ff.jpg","path":"http://123.56.20.50/img/hotel"},"province":"北京市","city":"北京市","district":"房山区","tags":["新店开业"]},{"id":"1409e856-316b-4f4f-bacb-86c605d8af84","name":"春天酒店03","photo":{"name":"","path":""},"province":"北京市","city":"北京市","district":"朝阳区","tags":["新店开业"],"price":199},{"id":"c3f49afa-ba3e-49e0-ba2b-b0d6a46baf40","name":"春天宾馆13","photo":{"name":"79d6279c60a1439caa69e8033da244ff.jpg","path":"http://123.56.20.50/img/hotel"},"province":"上海市","city":"上海市","district":"嘉定区","tags":["新店开业"],"price":199}]}}