{
  "home":{"code":1,"status":"success","data":{"histories":["测试","春天","速度啊盛大爱死"],"hotelInfo":[{"id":"116752c5-f78f-4d26-990f-88d1828b6511","name":"春天宾馆02","photo":{"name":"a5a90bc606f84811a82d3f7572a9fe61.jpg","path":"http://123.56.20.50/img/hotel"},"province":"北京市","city":"北京市","district":"朝阳区","tags":["新店开业"],"price":299},{"id":"0f74a2c7-5c60-4d7e-9c1a-3d27839bb1b9","name":"春天宾馆01","photo":{"name":"a5a90bc606f84811a82d3f7572a9fe61.jpg","path":"http://123.56.20.50/img/hotel"},"province":"北京市","city":"北京市","district":"朝阳区","tags":["设施全","最便宜","新店开业"],"price":209},{"id":"eb3d75cc-8ee0-401c-9f72-e6a9f1e32eb8","name":"春天宾馆15","photo":{"name":"79d6279c60a1439caa69e8033da244ff.jpg","path":"http://123.56.20.50/img/hotel"},"province":"北京市","city":"北京市","district":"朝阳区","tags":["新店开业"],"price":199},{"id":"a5eb1a56-ba83-4293-aab0-97564c8adce7","name":"春天宾馆11","photo":{"name":"79d6279c60a1439caa69e8033da244ff.jpg","path":"http://123.56.20.50/img/hotel"},"province":"北京市","city":"北京市","district":"朝阳区","tags":["新店开业"],"price":1099},{"id":"37f51a3f-baed-4551-986c-3ab5c9cc40ad","name":"春天宾馆06","photo":{"name":"79d6279c60a1439caa69e8033da244ff.jpg","path":"http://123.56.20.50/img/hotel"},"province":"北京市","city":"北京市","district":"朝阳区","tags":["新店开业"]}],"walletInfo":{"totalMoney":1160,"vipCardCount":0},"personInfo":{"nickname":"未来的一天","realName":"王子川","gender":"female","identity":"133333******33","rank":"Lv 0","expNumber":0,"nextRank":"Lv 1","nextExpNumber":100,"givePointNumber":5,"favoriteCount":3,"bindMobile":true,"bindWechat":false}}},
  "Home_H_D":{"code":1,"status":"success","data":{"id":"0f74a2c7-5c60-4d7e-9c1a-3d27839bb1b9","hotelName":"春天宾馆01","province":"北京市","city":"北京市","district":"朝阳区","address":"朝阳区","detail":"朝阳区朝阳区","hotelDiscount":0,"userVipDiscout":0,"hotelHighestDiscount":0.85,"longitude":0,"latitude":0,"like":false,"photos":[{"name":"a5a90bc606f84811a82d3f7572a9fe61.jpg","path":"http://123.56.20.50/img/hotel"},{"name":"a5a90bc606f84811a82d3f7572a9fe61.jpg","path":"http://123.56.20.50/img/hotel"}],"rooms":[{"id":"62aa2655-b016-4e4d-a2da-3d3d2ab7df9d","name":"豪华大床房","photos":[{"name":"a5a90bc606f84811a82d3f7572a9fe61.jpg","path":"http://123.56.20.50/img/hotel"}],"area":45,"price":999,"bed":"big_bed","breakfast":"double_breakfast"},{"id":"95d512fa-9b97-4334-89c4-e35c405b219a","name":"标准间","photos":[{"name":"a5a90bc606f84811a82d3f7572a9fe61.jpg","path":"http://123.56.20.50/img/hotel"}],"area":22,"price":209,"bed":"big_bed","breakfast":"no_breakfast"},{"id":"d0442328-e302-4d2d-a82d-546ec2a1430d","name":"大床房","photos":[{"name":"a5a90bc606f84811a82d3f7572a9fe61.jpg","path":"http://123.56.20.50/img/hotel"}],"area":36,"price":788,"bed":"big_bed","breakfast":"no_breakfast"}]}},
  "searchResult":{"code":1,"status":"success","data":{"offset":0,"size":10,"total":18,"self":"hotels?uid=086d1f45-19b7-43e9-84db-2f3d2915523c&page=1","next":"hotels?uid=086d1f45-19b7-43e9-84db-2f3d2915523c&page=2","items":[{"id":"116752c5-f78f-4d26-990f-88d1828b6511","name":"春天宾馆02","photo":{"name":"a5a90bc606f84811a82d3f7572a9fe61.jpg","path":"http://123.56.20.50/img/hotel"},"province":"北京市","city":"北京市","district":"朝阳区","tags":["新店开业"],"price":299},{"id":"0f74a2c7-5c60-4d7e-9c1a-3d27839bb1b9","name":"春天宾馆01","photo":{"name":"79d6279c60a1439caa69e8033da244ff.jpg","path":"http://123.56.20.50/img/hotel"},"province":"北京市","city":"北京市","district":"朝阳区","tags":["设施全","最便宜","新店开业"],"price":209},{"id":"eb3d75cc-8ee0-401c-9f72-e6a9f1e32eb8","name":"春天宾馆15","photo":{"name":"79d6279c60a1439caa69e8033da244ff.jpg","path":"http://123.56.20.50/img/hotel"},"province":"北京市","city":"北京市","district":"朝阳区","tags":["新店开业"],"price":199},{"id":"a5eb1a56-ba83-4293-aab0-97564c8adce7","name":"春天宾馆11","photo":{"name":"79d6279c60a1439caa69e8033da244ff.jpg","path":"http://123.56.20.50/img/hotel"},"province":"北京市","city":"北京市","district":"朝阳区","tags":["新店开业"],"price":1099},{"id":"37f51a3f-baed-4551-986c-3ab5c9cc40ad","name":"春天宾馆06","photo":{"name":"79d6279c60a1439caa69e8033da244ff.jpg","path":"http://123.56.20.50/img/hotel"},"province":"北京市","city":"北京市","district":"朝阳区","tags":["新店开业"]},{"id":"e16131fc-fd32-424e-8f62-ca8f32977b97","name":"春天宾馆14","photo":{"name":"79d6279c60a1439caa69e8033da244ff.jpg","path":"http://123.56.20.50/img/hotel"},"province":"北京市","city":"北京市","district":"朝阳区","tags":["新店开业"],"price":199},{"id":"4ca82f31-d8c1-46c0-be31-746a2efe21f6","name":"春天酒店007","photo":{"name":"79d6279c60a1439caa69e8033da244ff.jpg","path":"http://123.56.20.50/img/hotel"},"province":"上海市","city":"上海市","district":"宝山区","tags":["新店开业"]},{"id":"3c67fbf2-e5e5-42a3-be32-98abd7f05a85","name":"春天宾馆测试01","photo":{"name":"79d6279c60a1439caa69e8033da244ff.jpg","path":"http://123.56.20.50/img/hotel"},"province":"北京市","city":"北京市","district":"房山区","tags":["新店开业"]},{"id":"1409e856-316b-4f4f-bacb-86c605d8af84","name":"春天酒店03","photo":{"name":"79d6279c60a1439caa69e8033da244ff.jpg","path":"http://123.56.20.50/img/hotel"},"province":"北京市","city":"北京市","district":"朝阳区","tags":["新店开业"],"price":199},{"id":"c3f49afa-ba3e-49e0-ba2b-b0d6a46baf40","name":"春天宾馆13","photo":{"name":"79d6279c60a1439caa69e8033da244ff.jpg","path":"http://123.56.20.50/img/hotel"},"province":"上海市","city":"上海市","district":"嘉定区","tags":["新店开业"],"price":199}]}},
  "Card-List":{"code":1,"status":"success","data":{"offset":0,"size":10,"total":2,"self":"user/086d1f45-19b7-43e9-84db-2f3d2915523c/cards?&page=1","items":[{"cardId":"12f44ea9-f40a-4287-a5a3-1e5ab98d831e","cardName":"春天最贵金卡","price":9888.0,"discount":0.85,"deadline":"2017-03-27 00:00:00","availableCount":50,"reserveTime":"20:00:00","status":"normal","about":"asassas","dateCreated":"2016-09-28 18:04:27","saveMoney":125.0,"availablePoint":1160,"supportCount":6},{"cardId":"9cb549ed-d7a1-4b63-8590-554f84cf9083","cardName":"春天银卡","price":111.0,"discount":0.85,"deadline":"2017-03-27 00:00:00","availableCount":50,"reserveTime":"20:00:00","status":"normal","about":"1111","dateCreated":"2016-09-28 15:17:59","saveMoney":0.0,"availablePoint":1160,"supportCount":2}]}}
}
